[
  {
    "name": "South Louisiana CHADD",
    "contact_person": "Matthew Sampey",
    "location": "Baton Rouge, LA 70810",
    "state": "Louisiana",
    "phone": "301-306-7070",
    "email": "southlouisiana-chadd@chadd.org",
    "image": "https://images.app.goo.gl/V5gQtqzX2TxvWgXJ7"
  },
  {
    "name": "ADHD Kentucky Connections",
    "contact_person": "Cindy North",
    "location": "Lexington, KY",
    "state": "Kentucky",
    "phone": "(859)455-6156",
    "email": "ADHDkentuckyconnections@gmail.com",
    "image": "https://images.app.goo.gl/8tVB9ks7iY118vhA7"
  },
  {
    "name": "ADHD NWA",
    "contact_person": "Laurie Kulikosky",
    "location": "AR",
    "state": "Arkansas",
    "phone": "301-306-7070",
    "email": "customer_service@chadd.org",
    "image": "https://images.app.goo.gl/W58igvU7JHKptS2y6"
  },
  {
    "name": "ADHD Support of Erie Niagara",
    "contact_person": "Laurie Kulikosky",
    "location": "Buffalo, NY, USA",
    "state": "New York",
    "phone": "301-306-7070",
    "email": "customer_service@chadd.org",
    "image": "https://images.app.goo.gl/QYx2h7yLexuLMm3G62"
  },
  {
    "name": "AVCHADD - Antelope Valley CHADD",
    "contact_person": "Laurie Kulikosky",
    "location": "LA",
    "state": "California",
    "phone": "301-306-7070",
    "email": "affiliateservices@chadd.org",
    "image": "https://images.app.goo.gl/8dSyX7nj5Mrg3JBy6"
  },
  {
    "name": "Atlanta Satellite of CHADD",
    "contact_person": "Joan Teach",
    "location": "1366  N. Druid Hills Road Brookhaven, GA 30319",
    "state": "Georgia",
    "phone": "4045025358",
    "email": "atlanta-area@chadd.net",
    "image": "https://images.app.goo.gl/KKXJaNR3dYmK3e1S7"
  },
  {
    "name": "Cedar Rapids Branch of CHADD of IA",
    "contact_person": "Jami Demuth",
    "location": "IA",
    "state": "Iowa",
    "phone": "301-306-7070",
    "email": "iowa@chadd.org",
    "image": "https://images.app.goo.gl/Nh5AtqQkgdmZavb56"
  },
  {
    "name": "Central Arkansas Satellite of CHADD",
    "contact_person": "Martha Hibbard",
    "location": "Harlan Park Baptist Church 1895 Dave Ward Dr. Conway, AR  72032",
    "state": "Arkansas",
    "phone": "Martha 501-472-3409",
    "email": "hibbardm@conwayschools.net",
    "image": "https://images.app.goo.gl/j9FJGY8WBU4TePjq8"
  },
  {
    "name": "Central Valley CHADD",
    "contact_person": "Rick Webster",
    "location": "Manteca CA",
    "state": "California",
    "phone": "925.765.2890",
    "email": "Rick.Webster2@gmail.com",
    "image": "https://images.app.goo.gl/XMf8xDByY7snm8859"
  },
  {
    "name": "CHADD of Central Florida",
    "contact_person": "Laurie Kulikosky",
    "location": "Central Florida",
    "state": "Florida",
    "phone": "301-306-7070",
    "email": "customer_service@chadd.org",
    "image": "https://images.app.goo.gl/BhAQgemHqjPEX3AFA"
  },
  {
    "name": "CHADD El Paso",
    "contact_person": "Perla A Retana",
    "location": "El Paso",
    "state": "Texas",
    "phone": "9157912114",
    "email": "elpasochadd@gmail.com",
    "image": "https://images.app.goo.gl/LtZYybgpoWT3QQ9a8"
  },
  {
    "name": "CHADD of Delaware",
    "contact_person": "Laurie Kulikosky",
    "location": "Delaware",
    "state": "Delaware",
    "phone": "301-306-7070",
    "email": "customer_service@chadd.org",
    "image": "https://images.app.goo.gl/xT5pk6t8UyVMPGwz7"
  },
  {
    "name": "CHADD of Iowa",
    "contact_person": "Brian Foy",
    "location": "IA",
    "state": "Iowa",
    "phone": "301-306-7070",
    "email": "iowa@chadd.org",
    "image": "https://images.app.goo.gl/NNPiUpqN6gXDDhHj6"
  },
  {
    "name": "CHADD of Mercer County",
    "contact_person": "Jane",
    "location": "22 Riverside Drive adhdcoachjane@gmail.com Princeton, NJ 08540, NJ 08540",
    "state": "New Jersey",
    "phone": "609.731.7556",
    "email": "janemilrod@gmail.com",
    "image": "https://images.app.goo.gl/qAKkxHhUJsDZtC5r5"
  },
  {
    "name": "CHADD of Northern CA",
    "contact_person": "Rick Webster",
    "location": "Pleasanton CA",
    "state": "California",
    "phone": "925-765-2890",
    "email": "Rick.Webster2@gmail.com",
    "image": "https://images.app.goo.gl/jrpVZ6Z6ZoSdprja6"
  },
  {
    "name": "CHADD of Rhode Island",
    "contact_person": "Roberta Schneider",
    "location": "RI",
    "state": "Rhode Island",
    "phone": "401.369.0045",
    "email": "rhode-island@chadd.org",
    "image": "https://images.app.goo.gl/fBTxKPau8dpyatsZ7"
  },
  {
    "name": "CHADD of Southern NJ Counties",
    "contact_person": "Linda Karanzalis",
    "location": "Meetings held at Barry D. Brown Health Education Center Voorhees, NJ 08043",
    "state": "New Jersey",
    "phone": "- CHADD's National Resource Center for questions about AD/HD - 800-233-4050",
    "email": "lkaranzalis@gmail.com",
    "image": "https://images.app.goo.gl/8jNdzx8itvDWWRi2A"
  },
  {
    "name": "CHADD of Utah",
    "contact_person": "Ginger or Jenn",
    "location": "Anchorage UT 84015",
    "state": "Utah",
    "phone": "301-306-7070",
    "email": "chadd-of-utah@chadd.org",
    "image": "https://images.app.goo.gl/9KBUxkJQ1s925kgv8"
  },
  {
    "name": "Charleston ADHD Support Group",
    "contact_person": "Barry Patterson",
    "location": "SC",
    "state": "South Carolina",
    "phone": "301-306-7070",
    "email": "charlestonadhdgroup@gmail.com",
    "image": "https://images.app.goo.gl/ViupEmkN1u6UdkhK9"
  },
  {
    "name": "Chester ADHD Support Group",
    "contact_person": "Laurie Kulikosky",
    "location": "VA",
    "state": "Virginia",
    "phone": "301-306-7070",
    "email": "customer_service@chadd.org",
    "image": "https://images.app.goo.gl/nM7eiFQzpD4dP1z5A"
  },
  {
    "name": "Chula Vista CHADD",
    "contact_person": "Roxanne Fouche, San Diego County CHADD Coordinator",
    "location": "Chula Vista CA",
    "state": "California",
    "phone": "760-736-1111",
    "email": "RoxanneFouche@gmail.com",
    "image": "https://images.app.goo.gl/KZsoJRkCHfm8NkFbA"
  },
  {
    "name": "Collier County Satellite of CHADD",
    "contact_person": "Janet",
    "location": "Collier County, FL",
    "state": "Florida",
    "phone": "239-206-0300",
    "email": "janetmhm@icloud.com",
    "image": "https://images.app.goo.gl/GsGJFUvTSt4i7RHQA"
  },
  {
    "name": "CHADD of Columbus",
    "contact_person": "CHRISTINE KOTIK",
    "location": "15 Dale Dr, Blacklick, OH 43004",
    "state": "Ohio",
    "phone": "301-306-7070",
    "email": "columbus-ohio@chadd.org",
    "image": "https://images.app.goo.gl/n9NEL9rMVifvEVk28"
  },
  {
    "name": "Corte Madera CHADD",
    "contact_person": "Rick Webster",
    "location": "Corte Madera CA",
    "state": "California",
    "phone": "925.765.2890",
    "email": "Rick.Webster2@gmail.com",
    "image": "https://images.app.goo.gl/nurNUA6TDCNpobPX7"
  },
  {
    "name": "Davis ADHD Group for Women",
    "contact_person": "Eleanor Pracht-Smith",
    "location": "Davis, CA",
    "state": "California",
    "phone": "301-306-7070",
    "email": "eprachtsmith@gmail.com",
    "image": "https://images.app.goo.gl/EJYyPfin1ynbsu3m8"
  },
  {
    "name": "Davis County Branch of CHADD of Utah",
    "contact_person": "chadd-of-utah@chadd.org",
    "location": "UT",
    "state": "Utah",
    "phone": "301-306-7070",
    "email": "chadd-of-utah@chadd.org",
    "image": "https://images.app.goo.gl/9srDGk79VRiW5SBo8"
  },
  {
    "name": "Denver Metro CHADD",
    "contact_person": "Eric Hornak",
    "location": "Denver",
    "state": "Colorado",
    "phone": "800-233-4050",
    "email": "erichornak6@gmail.com",
    "image": "https://images.app.goo.gl/vukAVF92dVDzXv7o9"
  },
  {
    "name": "Dubuque Branch of CHADD of Iowa",
    "contact_person": "Jeanne",
    "location": "St. Peter Lutheran Church 3200 Asbury Road Dubuque, IA, IA",
    "state": "Iowa",
    "phone": "563-557-7529",
    "email": "iowa@chadd.org",
    "image": "https://images.app.goo.gl/WU3DKHWJjg8H1tpm8"
  },
  {
    "name": "East Contra Costa Branch of Northern CA",
    "contact_person": "Alicia",
    "location": "Antioch, CA",
    "state": "California",
    "phone": "925.753.0955",
    "email": "east-contra-costa-area@chadd.net",
    "image": "https://images.app.goo.gl/9rD4xG9F1qJTxbZH6"
  },
  {
    "name": "Eastern Oakland County CHADD",
    "contact_person": "Dr. Fran Parker, PhD",
    "location": "P.O. Box 481 Washington, MI 48094",
    "state": "Michigan",
    "phone": "248.988.6716",
    "email": "eocchadd@aol.com",
    "image": "https://images.app.goo.gl/pdfoLi8Q4Stwbchv9"
  },
  {
    "name": "Foothill CHADD",
    "contact_person": "Leonard R. Baker M.D.",
    "location": "La Canada, CA 91011",
    "state": "California",
    "phone": "301-306-7070",
    "email": "cswemline@dmcdl.com",
    "image": "https://images.app.goo.gl/vHNND24eM7YvYvDT7"
  },
  {
    "name": "Fremont Branch of Northern CA",
    "contact_person": "Shari Gent",
    "location": "Kaiser Fremont; 39400 Paseo Padre Dr. Fremont, CA 94538",
    "state": "California",
    "phone": "(510)386-7642",
    "email": "freemontchadd@chadd.net",
    "image": "https://images.app.goo.gl/1L4k32bcLsj4ChsJA"
  },
  {
    "name": "Chadd Arlington Virginia",
    "contact_person": "Laurie Kulikosky",
    "location": "Arlington, Virginia",
    "state": "Virginia",
    "phone": "301-306-7070",
    "email": "customer_service@chadd.org",
    "image": "https://images.app.goo.gl/a37NhJybSh5wci6R9"
  },
  {
    "name": "Hampton Roads Satellite of CHADD",
    "contact_person": "HR CHADD",
    "location": "2940 North Lynnhaven Road Suite 110 Virginia Beach, VA 23452",
    "state": "Virginia",
    "phone": "301-306-7070",
    "email": "info@hrchadd.com",
    "image": "https://images.app.goo.gl/g5Z1LSAyZsJe6UER9"
  },
  {
    "name": "Hamptons ADHD Support Group",
    "contact_person": "Thierry Devilez",
    "location": "Norfolk - Virginia Beach, VA",
    "state": "Virginia",
    "phone": "301-306-7070",
    "email": "hamptons-chadd@chadd.org",
    "image": "https://images.app.goo.gl/zmoU27bgQcgsQJCy6"
  },
  {
    "name": "Kitsap County CHADD",
    "contact_person": "Mike & Lynn",
    "location": "WA",
    "state": "Washington",
    "phone": "360.779.5362",
    "email": "myrvang@comcast.net",
    "image": "https://images.app.goo.gl/Xpm447TtunUShr1t9"
  },
  {
    "name": "West L.A. CHADD",
    "contact_person": "Regina F. Lark",
    "location": "West L.A.",
    "state": "California",
    "phone": "301-306-7070",
    "email": "regina@aclearpath.net",
    "image": "https://images.app.goo.gl/dWiiz39mw9krpXb59"
  },
  {
    "name": "CHADD of Lee County",
    "contact_person": "Lynne Lampila",
    "location": "14851 David Drive Ft. Myers,  FL 33908",
    "state": "Florida",
    "phone": "(239) 940-2578",
    "email": "haddofleecounty@yahoo.com",
    "image": "https://images.app.goo.gl/ytbGoDKHNzu2kwBb8"
  },
  {
    "name": "Lilburn CHADD Support Groups",
    "contact_person": "Pastor Katie Christie",
    "location": "1826 Killian Hill Road Lilburn, GA 30047",
    "state": "Georgia",
    "phone": "770-972-4418",
    "email": "pastorkatie@tlc-lilburn.org",
    "image": "https://images.app.goo.gl/rcQ66GemavZTwufTA"
  },
  {
    "name": "Madison Area Adults with ADHD Satellite",
    "contact_person": "madison-area2@chadd.net",
    "location": "Madison, WI",
    "state": "Wisconsin",
    "phone": "unlisted",
    "email": "madison-area2@chadd.net",
    "image": "https://images.app.goo.gl/qGn5doofvW4oQ6uN7"
  },
  {
    "name": "Madison-Area Satellite of CHADD",
    "contact_person": "Chris Telfer",
    "location": "Madison, WI",
    "state": "Wisconsin",
    "phone": "608-620-4784",
    "email": "madison-area@chadd.net",
    "image": "https://images.app.goo.gl/F9TDwmDYLa2M2A4G8"
  },
  {
    "name": "Marin Parent Support Group",
    "contact_person": "Rick Webster",
    "location": "Mill Valley CA",
    "state": "California",
    "phone": "925-765-2890",
    "email": "Rick.Webster2@gmail.com",
    "image": "https://images.app.goo.gl/rSoTqsbT9nyViqURA"
  },
  {
    "name": "Memphis-Germantown CHADD",
    "contact_person": "Laurie Kulikosky",
    "location": "Memphis, TN",
    "state": "Tennessee",
    "phone": "301-306-7070",
    "email": "customer_service@chadd.org",
    "image": "https://images.app.goo.gl/EBtQTBG4veBxiB7J6"
  },
  {
    "name": "Midwest Regional Center",
    "contact_person": "Jami Demuth",
    "location": "4221 Forbes Blvd Suite 270 Lanham, MD 20706",
    "state": "Maryland",
    "phone": "301-306-7070 x110",
    "email": "jami_demuth@chadd.org",
    "image": "https://images.app.goo.gl/xTswdD3FExuABtwS6"
  },
  {
    "name": "Morris County CHADD",
    "contact_person": "Leila Chayut, LCSW",
    "location": "Currently Meeting Virtually or Outdoors when possible NJ",
    "state": "New Jersey",
    "phone": "301-306-7070",
    "email": "MorrisCounty@chadd.org",
    "image": "https://images.app.goo.gl/boSQnYyBuaREtnEa8"
  },
  {
    "name": "Muscatine Branch of CHADD of Iowa",
    "contact_person": "Rachel Terry",
    "location": "IA",
    "state": "Iowa",
    "phone": "563-263-8476 ext. 6476",
    "email": "iowa@chadd.org",
    "image": "https://images.app.goo.gl/hCvpc7oNtUXTMT2p7"
  },
  {
    "name": "CHADD of Nassau County",
    "contact_person": "Shirelle F. Pearson",
    "location": "Elmont, NY 11003",
    "state": "New York",
    "phone": "516-242-3263",
    "email": "nassau-county@chadd.org",
    "image": "https://images.app.goo.gl/QzpvqWzi86rHSbwc7"
  },
  {
    "name": "NOLA CHADD (New Orleans ADHD Support Group)",
    "contact_person": "Casey Blasiar, LCSW",
    "location": "New Orleans, LA 70119",
    "state": "Louisiana",
    "phone": "301-306-7070",
    "email": "nolachadd@gmail.com",
    "image": "https://images.app.goo.gl/2RGX2Md2WsGaUARB9"
  },
  {
    "name": "North Texas",
    "contact_person": "Hilary Stern / Kerry Davis",
    "location": "Virtual Meetings via ZOOM",
    "state": "Texas",
    "phone": "469-298-8210",
    "email": "northtexaschadd@gmail.com",
    "image": "https://images.app.goo.gl/PGoK1CKWyfYnMdWD6"
  },
  {
    "name": "Northeast Ohio CHADD (NEO-CHADD)",
    "contact_person": "Laurie Kulikosky",
    "location": "Northeast Ohio",
    "state": "Ohio",
    "phone": "301-306-7070",
    "email": "customer_service@chadd.org",
    "image": "https://images.app.goo.gl/LNk8zScAmFofsCau9"
  },
  {
    "name": "Northeast Regional Center",
    "contact_person": "Claire Noyes",
    "location": "121 E Laurel Avenue Cheltenham, PA 19012",
    "state": "Pennsylvania",
    "phone": "267-326-7760",
    "email": "central_massachusetts@chadd.org",
    "image": "https://images.app.goo.gl/3JAxCf9WUvCLoLmg6"
  },
  {
    "name": "Northeastern Oklahoma Satellite of CHADD",
    "contact_person": "Laurie Kulikosky",
    "location": "Hardesty Regional Library 93rd & Memorial Tulsa, OK",
    "state": "Oklahoma",
    "phone": "301-306-7070",
    "email": "northeastern-oklahoma@chadd.net",
    "image": "https://images.app.goo.gl/u9E2UQsYsGht6tUw5"
  },
  {
    "name": "CHADD of Northern Virginia & District of Columbia",
    "contact_person": "Pam Barton",
    "location": "Northern Virginia",
    "state": "Virginia",
    "phone": "301-306-7070",
    "email": "chaddofnorthernvirginia@gmail.com",
    "image": "https://images.app.goo.gl/KHrce52A7mk7LpsP6"
  },
  {
    "name": "Oak Ridge CHADD",
    "contact_person": "Sharon",
    "location": "Oak Ridge, TN 37830",
    "state": "Tennessee",
    "phone": "865-482-7446",
    "email": "oakridge@chadd.net",
    "image": "https://images.app.goo.gl/AMgokZLzoBfeWLT88"
  },
  {
    "name": "Oakland Adult Support Group",
    "contact_person": "Rick Webster",
    "location": "Berkeley CA",
    "state": "California",
    "phone": "925-765-2890",
    "email": "Rick.Webster2@gmail.com",
    "image": "https://images.app.goo.gl/r2hZacw2FahQr2Th9"
  },
  {
    "name": "Omaha Metro CHADD",
    "contact_person": "Rhonda Eby",
    "location": "C/O Omaha Metro CHADD 2501 No 65th Ave Omaha, NE 68104",
    "state": "Nebraska",
    "phone": "301-306-7070",
    "email": "omaha@chadd.org",
    "image": "https://images.app.goo.gl/SiEJchvFNA6L9raD8"
  },
  {
    "name": "Petaluma Branch",
    "contact_person": "Rick Webster",
    "location": "369 Santa Paula San Leandro, CA 94579-1952",
    "state": "California",
    "phone": "925-765-2890",
    "email": "Rick.Webster2@gmail.com",
    "image": "https://images.app.goo.gl/ipvLftqZmsBVEBPX6"
  },
  {
    "name": "Philadelphia CHADD",
    "contact_person": "Angela Green (Program Coordinator)",
    "location": "PA",
    "state": "Pennsylvania",
    "phone": "301-306-7070",
    "email": "philadelphia-chadd@chadd.org",
    "image": "https://images.app.goo.gl/b5aMHJY7sUgdmau77"
  },
  {
    "name": "Pierce County Satellite of CHADD",
    "contact_person": "Mary Beth",
    "location": "Pierce County, WA",
    "state": "Washington",
    "phone": "301-306-7070",
    "email": "marybcole@yahoo.com",
    "image": "https://images.app.goo.gl/tKo4SpPMjFt4HZTx9"
  },
  {
    "name": "Pittsburgh and Vicinity Adult CHADD #477",
    "contact_person": "412-682-6282 or LeslieStonepgh@gmail.com\nCHADD & ADD/ADHD Reference Information: https://chadd.org/ or 301-306-7070",
    "location": "Pittsburgh, PA",
    "state": "Pennsylvania",
    "phone": "412.682.6282",
    "email": "LeslieStonepgh@gmail.com",
    "image": "https://images.app.goo.gl/fJTGm8hzsNTiTjgw8"
  },
  {
    "name": "Pittsburgh and Vicinity Parent CHADD",
    "contact_person": "Beth Tauberg",
    "location": "PA",
    "state": "Pennsylvania",
    "phone": "412.967.0913  Beth",
    "email": "pittsburgh-pa-parent@chadd.net",
    "image": "https://images.app.goo.gl/dKAbCAn37xQ7XFto9"
  },
  {
    "name": "Portland Metro CHADD",
    "contact_person": "Glenn",
    "location": "Portland, OR",
    "state": "Oregon",
    "phone": "bgericksen@comcast.net",
    "email": "info@chaddpdx.org",
    "image": "https://images.app.goo.gl/aLYXnqoyyzXRncmr9"
  },
  {
    "name": "Prince Georges County Parent Support Group",
    "contact_person": "Naline Walker",
    "location": "MD",
    "state": "Maryland",
    "phone": "301-306-7070",
    "email": "prince_georges@chadd.org",
    "image": "https://images.app.goo.gl/TSTpkfAxwSCky6bL7"
  },
  {
    "name": "Red River Valley Chapter of CHADD",
    "contact_person": "Jane Indergaard",
    "location": "www.chadd.net/chapter/336 Fargo, ND 58102",
    "state": "North Dakota",
    "phone": "701 367-5108",
    "email": "redrivervalley@chadd.org",
    "image": "https://images.app.goo.gl/8nCdXhKrLNQL5YCi7"
  },
  {
    "name": "Salt Lake County Branch of CHADD of Utah",
    "contact_person": "Julie Kinsey",
    "location": "Salt Lake County CHADD North Salt Lake, UT",
    "state": "Utah",
    "phone": "801.282.3515",
    "email": "salt-lake-county@chadd.net",
    "image": "https://images.app.goo.gl/got6E5y4zm2bsgGf9"
  },
  {
    "name": "San Diego County CHADD",
    "contact_person": "Roxanne Fouche, San Diego County CHADD Coordinator",
    "location": "P O Box 501895 San Diego, CA 92150-1111",
    "state": "California",
    "phone": "760.736.1111",
    "email": "RoxanneFouche@gmail.com",
    "image": "https://images.app.goo.gl/VfSCS2sqT3quZLTv8"
  },
  {
    "name": "San Francisco Adult Support Group",
    "contact_person": "Rick Webster",
    "location": "San Francisco CA",
    "state": "California",
    "phone": "925-765-2890",
    "email": "Rick.Webster2@gmail.com",
    "image": "https://images.app.goo.gl/UfLB73eHdTyPdWHm8"
  },
  {
    "name": "Santa Cruz ADHD Support Group",
    "contact_person": "Judy Brenis",
    "location": "Santa Cruz, CA",
    "state": "California",
    "phone": "831-818-9619",
    "email": "santacruzadhd@gmail.com",
    "image": "https://images.app.goo.gl/KXikxNaxhPcPLbws9"
  },
  {
    "name": "Shelby County ADHD CHADD",
    "contact_person": "Laurie Kulikosky",
    "location": "Shelby County, TN",
    "state": "Tennessee",
    "phone": "301-306-7070",
    "email": "customer_service@chadd.org",
    "image": "https://images.app.goo.gl/gcxZk1bnGMmF17U99"
  },
  {
    "name": "Silicon Valley CHADD",
    "contact_person": "Rick Webster",
    "location": "Palo Alto CA",
    "state": "California",
    "phone": "925-765-2890",
    "email": "Rick.Webster2@gmail.com",
    "image": "https://images.app.goo.gl/yaPznMVZqLnWRpTw6"
  },
  {
    "name": "So. Broward & No. Dade CHADD",
    "contact_person": "Staci Schnell",
    "location": "11011 Sheridan St Suite 211 Cooper City, FL 33026",
    "state": "Florida",
    "phone": "954-951-2929",
    "email": "broward-dade@chadd.org",
    "image": "https://images.app.goo.gl/91LETv4cEPt16YqC8"
  },
  {
    "name": "South Bay/So. CA CHADD",
    "contact_person": "Carolyn Kelly",
    "location": "CA",
    "state": "California",
    "phone": "301-306-7070",
    "email": "ckellychadd10g@gmail.com",
    "image": "https://images.app.goo.gl/ktFZNgz7RBsYG9nP8"
  },
  {
    "name": "South King County CHADD",
    "contact_person": "Monica Moffett",
    "location": "South King, Washington",
    "state": "Washington",
    "phone": "301-306-7070",
    "email": "south-king-county@chadd.net",
    "image": "https://images.app.goo.gl/aQBkwHfjrD7i66a8A"
  },
  {
    "name": "CHADD of Suffolk County, NY",
    "contact_person": "MarieElena Gandini",
    "location": "Suffolk County, NY",
    "state": "New York",
    "phone": "301-306-7070",
    "email": "suffolk-county@chadd.org",
    "image": "https://images.app.goo.gl/WSv8RGduN5wCNS7v9"
  },
  {
    "name": "Tri Valley CHADD Parent Support Group",
    "contact_person": "Rick Webster",
    "location": "Pleasanton CA",
    "state": "California",
    "phone": "925-765-2890",
    "email": "Rick.Webster2@gmail.com",
    "image": "https://images.app.goo.gl/qSbWxxyoAGyGiKFM6"
  },
  {
    "name": "Triangle Area CHADD",
    "contact_person": "Regina Hudson",
    "location": "P.O. Box 30457 Raleigh, NC 27622-0457",
    "state": "North Carolina",
    "phone": "919.229.9233",
    "email": "support@trianglechadd.com",
    "image": "https://images.app.goo.gl/PLC3iEdztm2Nm8Kh8"
  },
  {
    "name": "Tucson CHADD",
    "contact_person": "Laurie Kulikosky",
    "location": "Tucson, AZ",
    "state": "Arizona",
    "phone": "520-744-9493",
    "email": "Karen@chaddoftucson.com",
    "image": "https://images.app.goo.gl/ZMyqSBUzpn7Dfcxb7"
  },
  {
    "name": "Utah Valley Branch",
    "contact_person": "Ginger or Jenn",
    "location": "Provo UT",
    "state": "Utah",
    "phone": "301-306-7070",
    "email": "chadd-of-utah@chadd.org",
    "image": "https://images.app.goo.gl/opuUmMzRznwSvrgy5"
  },
  {
    "name": "Walnut Creek CHADD",
    "contact_person": "Rick Webster",
    "location": "Walnut Creek CA",
    "state": "California",
    "phone": "925-765-2890",
    "email": "Rick.Webster2@gmail.com",
    "image": "https://images.app.goo.gl/CRVNvvKGprvG9Ucz6"
  },
  {
    "name": "West L.A. CHADD",
    "contact_person": "Regina F. Lark",
    "location": "West L.A., CA",
    "state": "California",
    "phone": "301-306-7070",
    "email": "regina@aclearpath.net",
    "image": "https://images.app.goo.gl/ocy3QygbgEB12mbJ6"
  },
  {
    "name": "West Suburban Adult Satellite of CHADD",
    "contact_person": "George O.",
    "location": "Linden Oaks Outpatient Center 1335 North Mill Street Naperville, IL 60563",
    "state": "Illinois",
    "phone": "331-223-4293",
    "email": "ADDultDuPage@gmail.com",
    "image": "https://images.app.goo.gl/x6Mr6hfZ1GSx1Abv8"
  },
  {
    "name": "Westchester-Putnam & Vicinity CHADD, NY-376",
    "contact_person": "Karen Trovato",
    "location": "NY",
    "state": "New York",
    "phone": "866-200-8098",
    "email": "westchester-putnamvicinity@chadd.org",
    "image": "https://images.app.goo.gl/5PVExuMZWCH16e3r9"
  },
  {
    "name": "ADHDKC CHADD",
    "contact_person": "Lisa Campbell",
    "location": "Shawnee, KS",
    "state": "Kansas",
    "phone": "301-306-7070",
    "email": "customer_service@chadd.org",
    "image": "https://images.app.goo.gl/mqxiVMGUgQAzBgAX6"
  },
  {
    "name": "Anne Arundel County Chapter",
    "contact_person": "Carol Robbins",
    "location": "Arnold, MD",
    "state": "Maryland",
    "phone": "301-306-7070",
    "email": "drcarolrobbins@gmail.com",
    "image": "https://images.app.goo.gl/MFzjR6USYw8V6G9L7"
  },
  {
    "name": "Bergen County Chadd",
    "contact_person": "Isabel Ebrahimi",
    "location": "Bergen County, NJ",
    "state": "New Jersey",
    "phone": "301-306-7070",
    "email": "adhd.bergencounty@gmail.com.",
    "image": "https://images.app.goo.gl/SAkSREeLuYevTqGs7"
  },
  {
    "name": "Buxmont Chadd",
    "contact_person": "Barbara Rosen",
    "location": "Buxmont, PA",
    "state": "Pennsylvania",
    "phone": "267-326-7760",
    "email": "BuxMont@chadd.org",
    "image": "https://images.app.goo.gl/LwBBmTQ9ziXavawr9"
  },
  {
    "name": "CHADD of Central Massachusetts",
    "contact_person": "Laurie Kulikosky",
    "location": "Worcester MA 01609",
    "state": "Massachusetts",
    "phone": "301-306-7070",
    "email": "central_massachusetts@chadd.org",
    "image": "https://images.app.goo.gl/LQUSoodxqWBRYFd87"
  },
  {
    "name": "CHADD of Seattle",
    "contact_person": "Jessica Hespelt",
    "location": "Seattle WA 98109",
    "state": "Washington",
    "phone": "301-306-7070",
    "email": "customer_service@chadd.org",
    "image": "https://images.app.goo.gl/T88EZg4v2ZDUs5Vd9"
  },
  {
    "name": "Chester County/Main Line CHADD",
    "contact_person": "Rick Webster",
    "location": "Malvern PA 19355",
    "state": "Pennsylvania",
    "phone": "800-233-4050",
    "email": "CCMLCHADD@gmail.com",
    "image": "https://images.app.goo.gl/ZLkZxhPh8XpVATE98"
  },
  {
    "name": "Chicago's North Shore ADHD Support Group",
    "contact_person": "Laurie Kulikosky",
    "location": "Wilmette IL 60091",
    "state": "Illinois",
    "phone": "301-306-7070",
    "email": "customer_service@chadd.org",
    "image": "https://images.app.goo.gl/unUjcyN77wCweGby5"
  },
  {
    "name": "Eastside CHADD",
    "contact_person": "Barbara Bennett",
    "location": "Bellevue WA",
    "state": "Washington",
    "phone": "301-306-7070",
    "email": "eastside@chadd.org",
    "image": "https://images.app.goo.gl/NVatVZugM894z78W8"
  },
  {
    "name": "En Espanol - Spanish Support Group (Branch of CA455)",
    "contact_person": "Laurie Kulikosky",
    "location": "Tustin CA",
    "state": "California",
    "phone": "301-306-7070",
    "email": "brynhararichadd@gmail.com",
    "image": "https://images.app.goo.gl/savDdG5XFXQS21fL9"
  },
  {
    "name": "Grand Rapids CHADD",
    "contact_person": "Linda Brauer",
    "location": "Rockford MI 49341",
    "state": "Michigan",
    "phone": "616-874-5662",
    "email": "linda@chaddgr.org",
    "image": "https://images.app.goo.gl/KR2ueCSiiBz8k6P88"
  },
  {
    "name": "Greater Orange County CHADD",
    "contact_person": "Debra Ann Afarian",
    "location": "Irvine CA 92606",
    "state": "California",
    "phone": "301-306-7070",
    "email": "brynhararichadd@gmail.com",
    "image": "https://images.app.goo.gl/8EXc6YKUaKMhpi4W6"
  },
  {
    "name": "Greater Sacramento CHADD (Branch of CA504)",
    "contact_person": "TJ Vidales",
    "location": "Sacramento CA",
    "state": "California",
    "phone": "301-306-7070",
    "email": "chaddsac134@gmail.com",
    "image": "https://images.app.goo.gl/46jsT1TFgy1aLpc18"
  },
  {
    "name": "Louisiana Capital Area CHADD",
    "contact_person": "Laurie Kulikosky",
    "location": "Baton Rouge LA",
    "state": "Louisiana",
    "phone": "301-306-7070",
    "email": "customer_service@chadd.org",
    "image": "https://images.app.goo.gl/7kTW2ccbpXfiHQpV7"
  },
  {
    "name": "Montgomery County MD CHADD",
    "contact_person": "Laurie Kulikosky",
    "location": "Rockville MD",
    "state": "Maryland",
    "phone": "301-306-7070",
    "email": "customer_service@chadd.org",
    "image": "https://images.app.goo.gl/U794fqVKaWD7HUXG6"
  },
  {
    "name": "CHADD of Greater Baltimore",
    "contact_person": "Jill Linkoff",
    "location": "Baltimore MD",
    "state": "Maryland",
    "phone": "301-306-7070",
    "email": "jlinkoffcoaching@gmail.com",
    "image": "https://images.app.goo.gl/c7qQs9ujayYw9zrm6"
  },
  {
    "name": "San Fernando Valley CHADD",
    "contact_person": "Luke Smith",
    "location": "San Fernando Valley, CA",
    "state": "California",
    "phone": "301-306-7070",
    "email": "GreaterLA@CHADD.org",
    "image": "https://images.app.goo.gl/XBGEkjZdY71WtJcV6"
  },
  {
    "name": "TRI-CHADD NJ",
    "contact_person": "Eva O'Malley",
    "location": "Howell NJ 07731",
    "state": "New Jersey",
    "phone": "301-306-7070",
    "email": "customer_service@chadd.org",
    "image": "https://images.app.goo.gl/pFfKrkujoNzbUV5p6"
  },
  {
    "name": "CHADD OF Conejo Valley",
    "contact_person": "Yulia Rafailova",
    "location": "Conejo Valley, CA",
    "state": "California",
    "phone": "301-306-7070",
    "email": "GreaterLA@CHADD.org",
    "image": "https://images.app.goo.gl/upuDNcgrwBdrqsVWA"
  },
  {
    "name": "CHADD of Greater Los Angeles",
    "contact_person": "Yulia Rafailova",
    "location": "Sherman Oaks CA 91403",
    "state": "California",
    "phone": "301-306-7070",
    "email": "GreaterLA@CHADD.org",
    "image": "https://images.app.goo.gl/U8ssMqjA59f2Jr836"
  }
]

